%YAML 1.1
%TAG !u! tag:unity3d.com,2011:
--- !u!1001 &4283056953038476881
PrefabInstance:
  m_ObjectHideFlags: 0
  serializedVersion: 2
  m_Modification:
    m_TransformParent: {fileID: 0}
    m_Modifications:
    - target: {fileID: 1685507673789023900, guid: 1d62194f38b98104898b77aeec32ea66,
        type: 3}
      propertyPath: m_ExcludedPropertiesInInspector.Array.size
      value: 7
      objectReference: {fileID: 0}
    - target: {fileID: 1685507673789023900, guid: 1d62194f38b98104898b77aeec32ea66,
        type: 3}
      propertyPath: m_Lens.FieldOfView
      value: 63
      objectReference: {fileID: 0}
    - target: {fileID: 1900563164506635242, guid: 1d62194f38b98104898b77aeec32ea66,
        type: 3}
      propertyPath: m_Name
      value: FarBackTPCVariant
      objectReference: {fileID: 0}
    - target: {fileID: 2843983537873201405, guid: 1d62194f38b98104898b77aeec32ea66,
        type: 3}
      propertyPath: m_FollowOffset.y
      value: 11.12
      objectReference: {fileID: 0}
    - target: {fileID: 2843983537873201405, guid: 1d62194f38b98104898b77aeec32ea66,
        type: 3}
      propertyPath: m_FollowOffset.z
      value: -35.66
      objectReference: {fileID: 0}
    - target: {fileID: 2843983537873201405, guid: 1d62194f38b98104898b77aeec32ea66,
        type: 3}
      propertyPath: m_XDamping
      value: 1.7
      objectReference: {fileID: 0}
    - target: {fileID: 3156583845806915398, guid: 1d62194f38b98104898b77aeec32ea66,
        type: 3}
      propertyPath: m_LookaheadIgnoreY
      value: 1
      objectReference: {fileID: 0}
    - target: {fileID: 3156583845806915398, guid: 1d62194f38b98104898b77aeec32ea66,
        type: 3}
      propertyPath: m_HorizontalDamping
      value: 0.35
      objectReference: {fileID: 0}
    - target: {fileID: 3156583845806915398, guid: 1d62194f38b98104898b77aeec32ea66,
        type: 3}
      propertyPath: m_VerticalDamping
      value: 0.27
      objectReference: {fileID: 0}
    - target: {fileID: 3156583845806915398, guid: 1d62194f38b98104898b77aeec32ea66,
        type: 3}
      propertyPath: m_DeadZoneWidth
      value: 0.347
      objectReference: {fileID: 0}
    - target: {fileID: 3156583845806915398, guid: 1d62194f38b98104898b77aeec32ea66,
        type: 3}
      propertyPath: m_DeadZoneHeight
      value: 0.042
      objectReference: {fileID: 0}
    - target: {fileID: 3156583845806915398, guid: 1d62194f38b98104898b77aeec32ea66,
        type: 3}
      propertyPath: m_SoftZoneWidth
      value: 0.397
      objectReference: {fileID: 0}
    - target: {fileID: 3156583845806915398, guid: 1d62194f38b98104898b77aeec32ea66,
        type: 3}
      propertyPath: m_SoftZoneHeight
      value: 0.273
      objectReference: {fileID: 0}
    - target: {fileID: 3391159795194863492, guid: 1d62194f38b98104898b77aeec32ea66,
        type: 3}
      propertyPath: m_LocalRotation.x
      value: 0.0000000054478506
      objectReference: {fileID: 0}
    - target: {fileID: 3391159795194863492, guid: 1d62194f38b98104898b77aeec32ea66,
        type: 3}
      propertyPath: m_LocalRotation.y
      value: 0.99741983
      objectReference: {fileID: 0}
    - target: {fileID: 3391159795194863492, guid: 1d62194f38b98104898b77aeec32ea66,
        type: 3}
      propertyPath: m_LocalRotation.z
      value: -0.07178946
      objectReference: {fileID: 0}
    - target: {fileID: 3391159795194863492, guid: 1d62194f38b98104898b77aeec32ea66,
        type: 3}
      propertyPath: m_LocalRotation.w
      value: 0.0000000705453
      objectReference: {fileID: 0}
    - target: {fileID: 3500672602262982076, guid: 1d62194f38b98104898b77aeec32ea66,
        type: 3}
      propertyPath: m_CommonLens
      value: 0
      objectReference: {fileID: 0}
    - target: {fileID: 3500672602262982076, guid: 1d62194f38b98104898b77aeec32ea66,
        type: 3}
      propertyPath: m_Lens.FieldOfView
      value: 60
      objectReference: {fileID: 0}
    - target: {fileID: 3500672602262982076, guid: 1d62194f38b98104898b77aeec32ea66,
        type: 3}
      propertyPath: m_YAxis.Value
      value: 0.5
      objectReference: {fileID: 0}
    - target: {fileID: 3500672602262982076, guid: 1d62194f38b98104898b77aeec32ea66,
        type: 3}
      propertyPath: m_YAxisRecentering.m_enabled
      value: 1
      objectReference: {fileID: 0}
    - target: {fileID: 3500672602262982076, guid: 1d62194f38b98104898b77aeec32ea66,
        type: 3}
      propertyPath: m_YAxisRecentering.m_WaitTime
      value: 5
      objectReference: {fileID: 0}
    - target: {fileID: 3500672602262982076, guid: 1d62194f38b98104898b77aeec32ea66,
        type: 3}
      propertyPath: m_RecenterToTargetHeading.m_enabled
      value: 1
      objectReference: {fileID: 0}
    - target: {fileID: 3500672602262982076, guid: 1d62194f38b98104898b77aeec32ea66,
        type: 3}
      propertyPath: m_Orbits.Array.data[0].m_Height
      value: 34.9
      objectReference: {fileID: 0}
    - target: {fileID: 3500672602262982076, guid: 1d62194f38b98104898b77aeec32ea66,
        type: 3}
      propertyPath: m_Orbits.Array.data[0].m_Radius
      value: 10.4
      objectReference: {fileID: 0}
    - target: {fileID: 3500672602262982076, guid: 1d62194f38b98104898b77aeec32ea66,
        type: 3}
      propertyPath: m_Orbits.Array.data[1].m_Height
      value: 11.12
      objectReference: {fileID: 0}
    - target: {fileID: 3500672602262982076, guid: 1d62194f38b98104898b77aeec32ea66,
        type: 3}
      propertyPath: m_Orbits.Array.data[1].m_Radius
      value: 35.66
      objectReference: {fileID: 0}
    - target: {fileID: 3500672602262982076, guid: 1d62194f38b98104898b77aeec32ea66,
        type: 3}
      propertyPath: m_Orbits.Array.data[2].m_Height
      value: 0.2
      objectReference: {fileID: 0}
    - target: {fileID: 3500672602262982076, guid: 1d62194f38b98104898b77aeec32ea66,
        type: 3}
      propertyPath: m_Orbits.Array.data[2].m_Radius
      value: 9.4
      objectReference: {fileID: 0}
    - target: {fileID: 5290557406215801760, guid: 1d62194f38b98104898b77aeec32ea66,
        type: 3}
      propertyPath: m_LookaheadIgnoreY
      value: 1
      objectReference: {fileID: 0}
    - target: {fileID: 5290557406215801760, guid: 1d62194f38b98104898b77aeec32ea66,
        type: 3}
      propertyPath: m_HorizontalDamping
      value: 0.07
      objectReference: {fileID: 0}
    - target: {fileID: 5290557406215801760, guid: 1d62194f38b98104898b77aeec32ea66,
        type: 3}
      propertyPath: m_VerticalDamping
      value: 0.52
      objectReference: {fileID: 0}
    - target: {fileID: 5290557406215801760, guid: 1d62194f38b98104898b77aeec32ea66,
        type: 3}
      propertyPath: m_DeadZoneWidth
      value: 0.161
      objectReference: {fileID: 0}
    - target: {fileID: 5290557406215801760, guid: 1d62194f38b98104898b77aeec32ea66,
        type: 3}
      propertyPath: m_DeadZoneHeight
      value: 0.05
      objectReference: {fileID: 0}
    - target: {fileID: 5290557406215801760, guid: 1d62194f38b98104898b77aeec32ea66,
        type: 3}
      propertyPath: m_SoftZoneWidth
      value: 0.257
      objectReference: {fileID: 0}
    - target: {fileID: 5290557406215801760, guid: 1d62194f38b98104898b77aeec32ea66,
        type: 3}
      propertyPath: m_SoftZoneHeight
      value: 0.204
      objectReference: {fileID: 0}
    - target: {fileID: 6744088145039358173, guid: 1d62194f38b98104898b77aeec32ea66,
        type: 3}
      propertyPath: m_ExcludedPropertiesInInspector.Array.size
      value: 7
      objectReference: {fileID: 0}
    - target: {fileID: 6744088145039358173, guid: 1d62194f38b98104898b77aeec32ea66,
        type: 3}
      propertyPath: m_Lens.FieldOfView
      value: 65
      objectReference: {fileID: 0}
    - target: {fileID: 7236528969378504294, guid: 1d62194f38b98104898b77aeec32ea66,
        type: 3}
      propertyPath: m_FollowOffset.y
      value: 11.12
      objectReference: {fileID: 0}
    - target: {fileID: 7236528969378504294, guid: 1d62194f38b98104898b77aeec32ea66,
        type: 3}
      propertyPath: m_FollowOffset.z
      value: -35.66
      objectReference: {fileID: 0}
    - target: {fileID: 7236528969378504294, guid: 1d62194f38b98104898b77aeec32ea66,
        type: 3}
      propertyPath: m_XDamping
      value: 1.7
      objectReference: {fileID: 0}
    - target: {fileID: 7612178751261469339, guid: 1d62194f38b98104898b77aeec32ea66,
        type: 3}
      propertyPath: m_LocalRotation.x
      value: 0.000000010075572
      objectReference: {fileID: 0}
    - target: {fileID: 7612178751261469339, guid: 1d62194f38b98104898b77aeec32ea66,
        type: 3}
      propertyPath: m_LocalRotation.y
      value: 0.99741983
      objectReference: {fileID: 0}
    - target: {fileID: 7612178751261469339, guid: 1d62194f38b98104898b77aeec32ea66,
        type: 3}
      propertyPath: m_LocalRotation.z
      value: -0.071789525
      objectReference: {fileID: 0}
    - target: {fileID: 7612178751261469339, guid: 1d62194f38b98104898b77aeec32ea66,
        type: 3}
      propertyPath: m_LocalRotation.w
      value: 0.00000015761644
      objectReference: {fileID: 0}
    - target: {fileID: 7701020660477128530, guid: 1d62194f38b98104898b77aeec32ea66,
        type: 3}
      propertyPath: m_LocalPosition.x
      value: 34.599995
      objectReference: {fileID: 0}
    - target: {fileID: 7701020660477128530, guid: 1d62194f38b98104898b77aeec32ea66,
        type: 3}
      propertyPath: m_LocalPosition.y
      value: 12.12
      objectReference: {fileID: 0}
    - target: {fileID: 7701020660477128530, guid: 1d62194f38b98104898b77aeec32ea66,
        type: 3}
      propertyPath: m_LocalPosition.z
      value: 138.96
      objectReference: {fileID: 0}
    - target: {fileID: 7701020660477128530, guid: 1d62194f38b98104898b77aeec32ea66,
        type: 3}
      propertyPath: m_LocalRotation.x
      value: -0
      objectReference: {fileID: 0}
    - target: {fileID: 7701020660477128530, guid: 1d62194f38b98104898b77aeec32ea66,
        type: 3}
      propertyPath: m_LocalRotation.y
      value: -0
      objectReference: {fileID: 0}
    - target: {fileID: 7701020660477128530, guid: 1d62194f38b98104898b77aeec32ea66,
        type: 3}
      propertyPath: m_LocalRotation.z
      value: -0
      objectReference: {fileID: 0}
    - target: {fileID: 7701020660477128530, guid: 1d62194f38b98104898b77aeec32ea66,
        type: 3}
      propertyPath: m_LocalRotation.w
      value: 1
      objectReference: {fileID: 0}
    - target: {fileID: 7701020660477128530, guid: 1d62194f38b98104898b77aeec32ea66,
        type: 3}
      propertyPath: m_RootOrder
      value: 0
      objectReference: {fileID: 0}
    - target: {fileID: 7701020660477128530, guid: 1d62194f38b98104898b77aeec32ea66,
        type: 3}
      propertyPath: m_LocalEulerAnglesHint.x
      value: 0
      objectReference: {fileID: 0}
    - target: {fileID: 7701020660477128530, guid: 1d62194f38b98104898b77aeec32ea66,
        type: 3}
      propertyPath: m_LocalEulerAnglesHint.y
      value: 0
      objectReference: {fileID: 0}
    - target: {fileID: 7701020660477128530, guid: 1d62194f38b98104898b77aeec32ea66,
        type: 3}
      propertyPath: m_LocalEulerAnglesHint.z
      value: 0
      objectReference: {fileID: 0}
    - target: {fileID: 7763959713311324934, guid: 1d62194f38b98104898b77aeec32ea66,
        type: 3}
      propertyPath: m_ExcludedPropertiesInInspector.Array.size
      value: 7
      objectReference: {fileID: 0}
    - target: {fileID: 7763959713311324934, guid: 1d62194f38b98104898b77aeec32ea66,
        type: 3}
      propertyPath: m_Lens.FieldOfView
      value: 65
      objectReference: {fileID: 0}
    - target: {fileID: 7893201201929303163, guid: 1d62194f38b98104898b77aeec32ea66,
        type: 3}
      propertyPath: m_FollowOffset.y
      value: 11.12
      objectReference: {fileID: 0}
    - target: {fileID: 7893201201929303163, guid: 1d62194f38b98104898b77aeec32ea66,
        type: 3}
      propertyPath: m_FollowOffset.z
      value: -35.66
      objectReference: {fileID: 0}
    - target: {fileID: 7893201201929303163, guid: 1d62194f38b98104898b77aeec32ea66,
        type: 3}
      propertyPath: m_XDamping
      value: 1.7
      objectReference: {fileID: 0}
    - target: {fileID: 8478949296122443575, guid: 1d62194f38b98104898b77aeec32ea66,
        type: 3}
      propertyPath: m_LookaheadIgnoreY
      value: 1
      objectReference: {fileID: 0}
    - target: {fileID: 8478949296122443575, guid: 1d62194f38b98104898b77aeec32ea66,
        type: 3}
      propertyPath: m_HorizontalDamping
      value: 0.65
      objectReference: {fileID: 0}
    - target: {fileID: 8478949296122443575, guid: 1d62194f38b98104898b77aeec32ea66,
        type: 3}
      propertyPath: m_VerticalDamping
      value: 0.48
      objectReference: {fileID: 0}
    - target: {fileID: 8478949296122443575, guid: 1d62194f38b98104898b77aeec32ea66,
        type: 3}
      propertyPath: m_ScreenY
      value: 0.5
      objectReference: {fileID: 0}
    - target: {fileID: 8478949296122443575, guid: 1d62194f38b98104898b77aeec32ea66,
        type: 3}
      propertyPath: m_DeadZoneWidth
      value: 0.154
      objectReference: {fileID: 0}
    - target: {fileID: 8478949296122443575, guid: 1d62194f38b98104898b77aeec32ea66,
        type: 3}
      propertyPath: m_DeadZoneHeight
      value: 0.043
      objectReference: {fileID: 0}
    - target: {fileID: 8478949296122443575, guid: 1d62194f38b98104898b77aeec32ea66,
        type: 3}
      propertyPath: m_SoftZoneWidth
      value: 0.42
      objectReference: {fileID: 0}
    - target: {fileID: 8478949296122443575, guid: 1d62194f38b98104898b77aeec32ea66,
        type: 3}
      propertyPath: m_SoftZoneHeight
      value: 0.227
      objectReference: {fileID: 0}
    - target: {fileID: 9142511480593104567, guid: 1d62194f38b98104898b77aeec32ea66,
        type: 3}
      propertyPath: m_LocalRotation.x
      value: 5.482471e-10
      objectReference: {fileID: 0}
    - target: {fileID: 9142511480593104567, guid: 1d62194f38b98104898b77aeec32ea66,
        type: 3}
      propertyPath: m_LocalRotation.y
      value: 0.99741983
      objectReference: {fileID: 0}
    - target: {fileID: 9142511480593104567, guid: 1d62194f38b98104898b77aeec32ea66,
        type: 3}
      propertyPath: m_LocalRotation.z
      value: -0.071789436
      objectReference: {fileID: 0}
    - target: {fileID: 9142511480593104567, guid: 1d62194f38b98104898b77aeec32ea66,
        type: 3}
      propertyPath: m_LocalRotation.w
      value: 0.000000036039065
      objectReference: {fileID: 0}
    m_RemovedComponents: []
  m_SourcePrefab: {fileID: 100100000, guid: 1d62194f38b98104898b77aeec32ea66, type: 3}
