{
    "m_SerializedProperties": [
        {
            "typeInfo": {
                "fullName": "UnityEditor.ShaderGraph.Vector1ShaderProperty"
            },
            "JSONnodeData": "{\n    \"m_Name\": \"scale\",\n    \"m_GeneratePropertyBlock\": true,\n    \"m_Guid\": {\n        \"m_GuidSerialized\": \"96c031ac-c80a-4b4a-ac03-244fc1630783\"\n    },\n    \"m_DefaultReferenceName\": \"Vector1_269FB06\",\n    \"m_OverrideReferenceName\": \"\",\n    \"m_Precision\": 0,\n    \"m_Value\": 0.0,\n    \"m_FloatType\": 0,\n    \"m_RangeValues\": {\n        \"x\": 0.0,\n        \"y\": 1.0\n    },\n    \"m_Hidden\": false\n}"
        },
        {
            "typeInfo": {
                "fullName": "UnityEditor.ShaderGraph.TextureShaderProperty"
            },
            "JSONnodeData": "{\n    \"m_Name\": \"maintexture\",\n    \"m_GeneratePropertyBlock\": true,\n    \"m_Guid\": {\n        \"m_GuidSerialized\": \"aede9dfc-473a-4105-bb3c-da8c84900279\"\n    },\n    \"m_DefaultReferenceName\": \"Texture2D_492A008A\",\n    \"m_OverrideReferenceName\": \"\",\n    \"m_Precision\": 0,\n    \"m_Value\": {\n        \"m_SerializedTexture\": \"{\\\"texture\\\":{\\\"fileID\\\":2800000,\\\"guid\\\":\\\"e99f312c66b268543acc89169c06585d\\\",\\\"type\\\":3}}\",\n        \"m_Guid\": \"\"\n    },\n    \"m_Modifiable\": true,\n    \"m_DefaultType\": 0\n}"
        },
        {
            "typeInfo": {
                "fullName": "UnityEditor.ShaderGraph.ColorShaderProperty"
            },
            "JSONnodeData": "{\n    \"m_Name\": \"maincolor\",\n    \"m_GeneratePropertyBlock\": true,\n    \"m_Guid\": {\n        \"m_GuidSerialized\": \"82371d09-d134-4713-98c5-0d2956f3c4ea\"\n    },\n    \"m_DefaultReferenceName\": \"Color_78BD30D1\",\n    \"m_OverrideReferenceName\": \"\",\n    \"m_Precision\": 0,\n    \"m_Value\": {\n        \"r\": 1.0,\n        \"g\": 0.0,\n        \"b\": 0.08614110946655274,\n        \"a\": 0.0\n    },\n    \"m_ColorMode\": 0,\n    \"m_Hidden\": false\n}"
        }
    ],
    "m_SerializableNodes": [
        {
            "typeInfo": {
                "fullName": "UnityEditor.ShaderGraph.UnlitMasterNode"
            },
            "JSONnodeData": "{\n    \"m_GuidSerialized\": \"8505d56e-8cc6-48c3-b983-17c21948b447\",\n    \"m_GroupGuidSerialized\": \"00000000-0000-0000-0000-000000000000\",\n    \"m_Name\": \"Unlit Master\",\n    \"m_DrawState\": {\n        \"m_Expanded\": true,\n        \"m_Position\": {\n            \"serializedVersion\": \"2\",\n            \"x\": 349.0,\n            \"y\": -397.0,\n            \"width\": 200.0,\n            \"height\": 149.0\n        }\n    },\n    \"m_SerializableSlots\": [\n        {\n            \"typeInfo\": {\n                \"fullName\": \"UnityEditor.ShaderGraph.PositionMaterialSlot\"\n            },\n            \"JSONnodeData\": \"{\\n    \\\"m_Id\\\": 9,\\n    \\\"m_DisplayName\\\": \\\"Position\\\",\\n    \\\"m_SlotType\\\": 0,\\n    \\\"m_Priority\\\": 2147483647,\\n    \\\"m_Hidden\\\": false,\\n    \\\"m_ShaderOutputName\\\": \\\"Position\\\",\\n    \\\"m_StageCapability\\\": 1,\\n    \\\"m_Value\\\": {\\n        \\\"x\\\": 0.0,\\n        \\\"y\\\": 0.0,\\n        \\\"z\\\": 0.0\\n    },\\n    \\\"m_DefaultValue\\\": {\\n        \\\"x\\\": 0.0,\\n        \\\"y\\\": 0.0,\\n        \\\"z\\\": 0.0\\n    },\\n    \\\"m_Labels\\\": [\\n        \\\"X\\\",\\n        \\\"Y\\\",\\n        \\\"Z\\\"\\n    ],\\n    \\\"m_Space\\\": 0\\n}\"\n        },\n        {\n            \"typeInfo\": {\n                \"fullName\": \"UnityEditor.ShaderGraph.ColorRGBMaterialSlot\"\n            },\n            \"JSONnodeData\": \"{\\n    \\\"m_Id\\\": 0,\\n    \\\"m_DisplayName\\\": \\\"Color\\\",\\n    \\\"m_SlotType\\\": 0,\\n    \\\"m_Priority\\\": 2147483647,\\n    \\\"m_Hidden\\\": false,\\n    \\\"m_ShaderOutputName\\\": \\\"Color\\\",\\n    \\\"m_StageCapability\\\": 2,\\n    \\\"m_Value\\\": {\\n        \\\"x\\\": 0.0,\\n        \\\"y\\\": 1.0,\\n        \\\"z\\\": 0.7880775928497315\\n    },\\n    \\\"m_DefaultValue\\\": {\\n        \\\"x\\\": 0.0,\\n        \\\"y\\\": 0.0,\\n        \\\"z\\\": 0.0\\n    },\\n    \\\"m_Labels\\\": [\\n        \\\"X\\\",\\n        \\\"Y\\\",\\n        \\\"Z\\\"\\n    ],\\n    \\\"m_ColorMode\\\": 0\\n}\"\n        },\n        {\n            \"typeInfo\": {\n                \"fullName\": \"UnityEditor.ShaderGraph.Vector1MaterialSlot\"\n            },\n            \"JSONnodeData\": \"{\\n    \\\"m_Id\\\": 7,\\n    \\\"m_DisplayName\\\": \\\"Alpha\\\",\\n    \\\"m_SlotType\\\": 0,\\n    \\\"m_Priority\\\": 2147483647,\\n    \\\"m_Hidden\\\": false,\\n    \\\"m_ShaderOutputName\\\": \\\"Alpha\\\",\\n    \\\"m_StageCapability\\\": 2,\\n    \\\"m_Value\\\": 1.0,\\n    \\\"m_DefaultValue\\\": 1.0,\\n    \\\"m_Labels\\\": [\\n        \\\"X\\\"\\n    ]\\n}\"\n        },\n        {\n            \"typeInfo\": {\n                \"fullName\": \"UnityEditor.ShaderGraph.Vector1MaterialSlot\"\n            },\n            \"JSONnodeData\": \"{\\n    \\\"m_Id\\\": 8,\\n    \\\"m_DisplayName\\\": \\\"AlphaClipThreshold\\\",\\n    \\\"m_SlotType\\\": 0,\\n    \\\"m_Priority\\\": 2147483647,\\n    \\\"m_Hidden\\\": false,\\n    \\\"m_ShaderOutputName\\\": \\\"AlphaClipThreshold\\\",\\n    \\\"m_StageCapability\\\": 2,\\n    \\\"m_Value\\\": 0.5,\\n    \\\"m_DefaultValue\\\": 0.5,\\n    \\\"m_Labels\\\": [\\n        \\\"X\\\"\\n    ]\\n}\"\n        }\n    ],\n    \"m_Precision\": 0,\n    \"m_PreviewExpanded\": true,\n    \"m_CustomColors\": {\n        \"m_SerializableColors\": []\n    },\n    \"m_SerializableSubShaders\": [\n        {\n            \"typeInfo\": {\n                \"fullName\": \"UnityEngine.Rendering.LWRP.LightWeightUnlitSubShader\"\n            },\n            \"JSONnodeData\": \"{}\"\n        }\n    ],\n    \"m_SurfaceType\": 0,\n    \"m_AlphaMode\": 0,\n    \"m_TwoSided\": false,\n    \"m_AddPrecomputedVelocity\": false\n}"
        },
        {
            "typeInfo": {
                "fullName": "UnityEditor.ShaderGraph.TriplanarNode"
            },
            "JSONnodeData": "{\n    \"m_GuidSerialized\": \"c967919a-8b23-4ddb-9e33-ef8e628c2fd8\",\n    \"m_GroupGuidSerialized\": \"00000000-0000-0000-0000-000000000000\",\n    \"m_Name\": \"Triplanar\",\n    \"m_DrawState\": {\n        \"m_Expanded\": true,\n        \"m_Position\": {\n            \"serializedVersion\": \"2\",\n            \"x\": -446.0,\n            \"y\": -91.0,\n            \"width\": 208.0,\n            \"height\": 434.0\n        }\n    },\n    \"m_SerializableSlots\": [\n        {\n            \"typeInfo\": {\n                \"fullName\": \"UnityEditor.ShaderGraph.Vector4MaterialSlot\"\n            },\n            \"JSONnodeData\": \"{\\n    \\\"m_Id\\\": 0,\\n    \\\"m_DisplayName\\\": \\\"Out\\\",\\n    \\\"m_SlotType\\\": 1,\\n    \\\"m_Priority\\\": 2147483647,\\n    \\\"m_Hidden\\\": false,\\n    \\\"m_ShaderOutputName\\\": \\\"Out\\\",\\n    \\\"m_StageCapability\\\": 2,\\n    \\\"m_Value\\\": {\\n        \\\"x\\\": 0.0,\\n        \\\"y\\\": 0.0,\\n        \\\"z\\\": 0.0,\\n        \\\"w\\\": 0.0\\n    },\\n    \\\"m_DefaultValue\\\": {\\n        \\\"x\\\": 0.0,\\n        \\\"y\\\": 0.0,\\n        \\\"z\\\": 0.0,\\n        \\\"w\\\": 0.0\\n    }\\n}\"\n        },\n        {\n            \"typeInfo\": {\n                \"fullName\": \"UnityEditor.ShaderGraph.Texture2DInputMaterialSlot\"\n            },\n            \"JSONnodeData\": \"{\\n    \\\"m_Id\\\": 1,\\n    \\\"m_DisplayName\\\": \\\"Texture\\\",\\n    \\\"m_SlotType\\\": 0,\\n    \\\"m_Priority\\\": 2147483647,\\n    \\\"m_Hidden\\\": false,\\n    \\\"m_ShaderOutputName\\\": \\\"Texture\\\",\\n    \\\"m_StageCapability\\\": 3,\\n    \\\"m_Texture\\\": {\\n        \\\"m_SerializedTexture\\\": \\\"{\\\\\\\"texture\\\\\\\":{\\\\\\\"fileID\\\\\\\":2800000,\\\\\\\"guid\\\\\\\":\\\\\\\"da98ef60dfdef9148a861d729a3609c9\\\\\\\",\\\\\\\"type\\\\\\\":3}}\\\",\\n        \\\"m_Guid\\\": \\\"\\\"\\n    },\\n    \\\"m_DefaultType\\\": 0\\n}\"\n        },\n        {\n            \"typeInfo\": {\n                \"fullName\": \"UnityEditor.ShaderGraph.SamplerStateMaterialSlot\"\n            },\n            \"JSONnodeData\": \"{\\n    \\\"m_Id\\\": 2,\\n    \\\"m_DisplayName\\\": \\\"Sampler\\\",\\n    \\\"m_SlotType\\\": 0,\\n    \\\"m_Priority\\\": 2147483647,\\n    \\\"m_Hidden\\\": false,\\n    \\\"m_ShaderOutputName\\\": \\\"Sampler\\\",\\n    \\\"m_StageCapability\\\": 3\\n}\"\n        },\n        {\n            \"typeInfo\": {\n                \"fullName\": \"UnityEditor.ShaderGraph.PositionMaterialSlot\"\n            },\n            \"JSONnodeData\": \"{\\n    \\\"m_Id\\\": 3,\\n    \\\"m_DisplayName\\\": \\\"Position\\\",\\n    \\\"m_SlotType\\\": 0,\\n    \\\"m_Priority\\\": 2147483647,\\n    \\\"m_Hidden\\\": false,\\n    \\\"m_ShaderOutputName\\\": \\\"Position\\\",\\n    \\\"m_StageCapability\\\": 3,\\n    \\\"m_Value\\\": {\\n        \\\"x\\\": 0.0,\\n        \\\"y\\\": 0.0,\\n        \\\"z\\\": 0.0\\n    },\\n    \\\"m_DefaultValue\\\": {\\n        \\\"x\\\": 0.0,\\n        \\\"y\\\": 0.0,\\n        \\\"z\\\": 0.0\\n    },\\n    \\\"m_Labels\\\": [\\n        \\\"X\\\",\\n        \\\"Y\\\",\\n        \\\"Z\\\"\\n    ],\\n    \\\"m_Space\\\": 2\\n}\"\n        },\n        {\n            \"typeInfo\": {\n                \"fullName\": \"UnityEditor.ShaderGraph.NormalMaterialSlot\"\n            },\n            \"JSONnodeData\": \"{\\n    \\\"m_Id\\\": 4,\\n    \\\"m_DisplayName\\\": \\\"Normal\\\",\\n    \\\"m_SlotType\\\": 0,\\n    \\\"m_Priority\\\": 2147483647,\\n    \\\"m_Hidden\\\": false,\\n    \\\"m_ShaderOutputName\\\": \\\"Normal\\\",\\n    \\\"m_StageCapability\\\": 3,\\n    \\\"m_Value\\\": {\\n        \\\"x\\\": 0.0,\\n        \\\"y\\\": 0.0,\\n        \\\"z\\\": 0.0\\n    },\\n    \\\"m_DefaultValue\\\": {\\n        \\\"x\\\": 0.0,\\n        \\\"y\\\": 0.0,\\n        \\\"z\\\": 0.0\\n    },\\n    \\\"m_Labels\\\": [\\n        \\\"X\\\",\\n        \\\"Y\\\",\\n        \\\"Z\\\"\\n    ],\\n    \\\"m_Space\\\": 2\\n}\"\n        },\n        {\n            \"typeInfo\": {\n                \"fullName\": \"UnityEditor.ShaderGraph.Vector1MaterialSlot\"\n            },\n            \"JSONnodeData\": \"{\\n    \\\"m_Id\\\": 5,\\n    \\\"m_DisplayName\\\": \\\"Tile\\\",\\n    \\\"m_SlotType\\\": 0,\\n    \\\"m_Priority\\\": 2147483647,\\n    \\\"m_Hidden\\\": false,\\n    \\\"m_ShaderOutputName\\\": \\\"Tile\\\",\\n    \\\"m_StageCapability\\\": 3,\\n    \\\"m_Value\\\": 1.0,\\n    \\\"m_DefaultValue\\\": 1.0,\\n    \\\"m_Labels\\\": [\\n        \\\"X\\\"\\n    ]\\n}\"\n        },\n        {\n            \"typeInfo\": {\n                \"fullName\": \"UnityEditor.ShaderGraph.Vector1MaterialSlot\"\n            },\n            \"JSONnodeData\": \"{\\n    \\\"m_Id\\\": 6,\\n    \\\"m_DisplayName\\\": \\\"Blend\\\",\\n    \\\"m_SlotType\\\": 0,\\n    \\\"m_Priority\\\": 2147483647,\\n    \\\"m_Hidden\\\": false,\\n    \\\"m_ShaderOutputName\\\": \\\"Blend\\\",\\n    \\\"m_StageCapability\\\": 3,\\n    \\\"m_Value\\\": 1.0,\\n    \\\"m_DefaultValue\\\": 1.0,\\n    \\\"m_Labels\\\": [\\n        \\\"X\\\"\\n    ]\\n}\"\n        }\n    ],\n    \"m_Precision\": 0,\n    \"m_PreviewExpanded\": true,\n    \"m_CustomColors\": {\n        \"m_SerializableColors\": []\n    },\n    \"m_TextureType\": 0\n}"
        },
        {
            "typeInfo": {
                "fullName": "UnityEditor.ShaderGraph.PropertyNode"
            },
            "JSONnodeData": "{\n    \"m_GuidSerialized\": \"94d5bf24-cd86-4971-a088-400ee8d6b689\",\n    \"m_GroupGuidSerialized\": \"00000000-0000-0000-0000-000000000000\",\n    \"m_Name\": \"Property\",\n    \"m_DrawState\": {\n        \"m_Expanded\": true,\n        \"m_Position\": {\n            \"serializedVersion\": \"2\",\n            \"x\": -217.0,\n            \"y\": -393.0,\n            \"width\": 122.0,\n            \"height\": 34.0\n        }\n    },\n    \"m_SerializableSlots\": [\n        {\n            \"typeInfo\": {\n                \"fullName\": \"UnityEditor.ShaderGraph.Vector4MaterialSlot\"\n            },\n            \"JSONnodeData\": \"{\\n    \\\"m_Id\\\": 0,\\n    \\\"m_DisplayName\\\": \\\"maincolor\\\",\\n    \\\"m_SlotType\\\": 1,\\n    \\\"m_Priority\\\": 2147483647,\\n    \\\"m_Hidden\\\": false,\\n    \\\"m_ShaderOutputName\\\": \\\"Out\\\",\\n    \\\"m_StageCapability\\\": 3,\\n    \\\"m_Value\\\": {\\n        \\\"x\\\": 0.0,\\n        \\\"y\\\": 0.0,\\n        \\\"z\\\": 0.0,\\n        \\\"w\\\": 0.0\\n    },\\n    \\\"m_DefaultValue\\\": {\\n        \\\"x\\\": 0.0,\\n        \\\"y\\\": 0.0,\\n        \\\"z\\\": 0.0,\\n        \\\"w\\\": 0.0\\n    }\\n}\"\n        }\n    ],\n    \"m_Precision\": 0,\n    \"m_PreviewExpanded\": true,\n    \"m_CustomColors\": {\n        \"m_SerializableColors\": []\n    },\n    \"m_PropertyGuidSerialized\": \"82371d09-d134-4713-98c5-0d2956f3c4ea\"\n}"
        },
        {
            "typeInfo": {
                "fullName": "UnityEditor.ShaderGraph.PropertyNode"
            },
            "JSONnodeData": "{\n    \"m_GuidSerialized\": \"4c5a0797-3b3d-4fcd-8c14-2c8ac8ab45b3\",\n    \"m_GroupGuidSerialized\": \"00000000-0000-0000-0000-000000000000\",\n    \"m_Name\": \"Property\",\n    \"m_DrawState\": {\n        \"m_Expanded\": true,\n        \"m_Position\": {\n            \"serializedVersion\": \"2\",\n            \"x\": -698.0,\n            \"y\": 191.0,\n            \"width\": 99.0,\n            \"height\": 34.0\n        }\n    },\n    \"m_SerializableSlots\": [\n        {\n            \"typeInfo\": {\n                \"fullName\": \"UnityEditor.ShaderGraph.Vector1MaterialSlot\"\n            },\n            \"JSONnodeData\": \"{\\n    \\\"m_Id\\\": 0,\\n    \\\"m_DisplayName\\\": \\\"scale\\\",\\n    \\\"m_SlotType\\\": 1,\\n    \\\"m_Priority\\\": 2147483647,\\n    \\\"m_Hidden\\\": false,\\n    \\\"m_ShaderOutputName\\\": \\\"Out\\\",\\n    \\\"m_StageCapability\\\": 3,\\n    \\\"m_Value\\\": 0.0,\\n    \\\"m_DefaultValue\\\": 0.0,\\n    \\\"m_Labels\\\": [\\n        \\\"X\\\"\\n    ]\\n}\"\n        }\n    ],\n    \"m_Precision\": 0,\n    \"m_PreviewExpanded\": true,\n    \"m_CustomColors\": {\n        \"m_SerializableColors\": []\n    },\n    \"m_PropertyGuidSerialized\": \"96c031ac-c80a-4b4a-ac03-244fc1630783\"\n}"
        },
        {
            "typeInfo": {
                "fullName": "UnityEditor.ShaderGraph.PropertyNode"
            },
            "JSONnodeData": "{\n    \"m_GuidSerialized\": \"c9e562a5-ce08-4f4a-b2f1-fde662b2f275\",\n    \"m_GroupGuidSerialized\": \"00000000-0000-0000-0000-000000000000\",\n    \"m_Name\": \"Property\",\n    \"m_DrawState\": {\n        \"m_Expanded\": true,\n        \"m_Position\": {\n            \"serializedVersion\": \"2\",\n            \"x\": -633.0,\n            \"y\": -123.0,\n            \"width\": 0.0,\n            \"height\": 0.0\n        }\n    },\n    \"m_SerializableSlots\": [\n        {\n            \"typeInfo\": {\n                \"fullName\": \"UnityEditor.ShaderGraph.Texture2DMaterialSlot\"\n            },\n            \"JSONnodeData\": \"{\\n    \\\"m_Id\\\": 0,\\n    \\\"m_DisplayName\\\": \\\"maintexture\\\",\\n    \\\"m_SlotType\\\": 1,\\n    \\\"m_Priority\\\": 2147483647,\\n    \\\"m_Hidden\\\": false,\\n    \\\"m_ShaderOutputName\\\": \\\"Out\\\",\\n    \\\"m_StageCapability\\\": 3\\n}\"\n        }\n    ],\n    \"m_Precision\": 0,\n    \"m_PreviewExpanded\": true,\n    \"m_CustomColors\": {\n        \"m_SerializableColors\": []\n    },\n    \"m_PropertyGuidSerialized\": \"aede9dfc-473a-4105-bb3c-da8c84900279\"\n}"
        },
        {
            "typeInfo": {
                "fullName": "UnityEditor.ShaderGraph.MultiplyNode"
            },
            "JSONnodeData": "{\n    \"m_GuidSerialized\": \"3be3c6bd-f252-4870-82de-04013418ca2f\",\n    \"m_GroupGuidSerialized\": \"00000000-0000-0000-0000-000000000000\",\n    \"m_Name\": \"Multiply\",\n    \"m_DrawState\": {\n        \"m_Expanded\": true,\n        \"m_Position\": {\n            \"serializedVersion\": \"2\",\n            \"x\": -25.0,\n            \"y\": -376.0,\n            \"width\": 208.0,\n            \"height\": 302.0\n        }\n    },\n    \"m_SerializableSlots\": [\n        {\n            \"typeInfo\": {\n                \"fullName\": \"UnityEditor.ShaderGraph.DynamicValueMaterialSlot\"\n            },\n            \"JSONnodeData\": \"{\\n    \\\"m_Id\\\": 0,\\n    \\\"m_DisplayName\\\": \\\"A\\\",\\n    \\\"m_SlotType\\\": 0,\\n    \\\"m_Priority\\\": 2147483647,\\n    \\\"m_Hidden\\\": false,\\n    \\\"m_ShaderOutputName\\\": \\\"A\\\",\\n    \\\"m_StageCapability\\\": 3,\\n    \\\"m_Value\\\": {\\n        \\\"e00\\\": 0.0,\\n        \\\"e01\\\": 0.0,\\n        \\\"e02\\\": 0.0,\\n        \\\"e03\\\": 0.0,\\n        \\\"e10\\\": 0.0,\\n        \\\"e11\\\": 0.0,\\n        \\\"e12\\\": 0.0,\\n        \\\"e13\\\": 0.0,\\n        \\\"e20\\\": 0.0,\\n        \\\"e21\\\": 0.0,\\n        \\\"e22\\\": 0.0,\\n        \\\"e23\\\": 0.0,\\n        \\\"e30\\\": 0.0,\\n        \\\"e31\\\": 0.0,\\n        \\\"e32\\\": 0.0,\\n        \\\"e33\\\": 0.0\\n    },\\n    \\\"m_DefaultValue\\\": {\\n        \\\"e00\\\": 1.0,\\n        \\\"e01\\\": 0.0,\\n        \\\"e02\\\": 0.0,\\n        \\\"e03\\\": 0.0,\\n        \\\"e10\\\": 0.0,\\n        \\\"e11\\\": 1.0,\\n        \\\"e12\\\": 0.0,\\n        \\\"e13\\\": 0.0,\\n        \\\"e20\\\": 0.0,\\n        \\\"e21\\\": 0.0,\\n        \\\"e22\\\": 1.0,\\n        \\\"e23\\\": 0.0,\\n        \\\"e30\\\": 0.0,\\n        \\\"e31\\\": 0.0,\\n        \\\"e32\\\": 0.0,\\n        \\\"e33\\\": 1.0\\n    }\\n}\"\n        },\n        {\n            \"typeInfo\": {\n                \"fullName\": \"UnityEditor.ShaderGraph.DynamicValueMaterialSlot\"\n            },\n            \"JSONnodeData\": \"{\\n    \\\"m_Id\\\": 1,\\n    \\\"m_DisplayName\\\": \\\"B\\\",\\n    \\\"m_SlotType\\\": 0,\\n    \\\"m_Priority\\\": 2147483647,\\n    \\\"m_Hidden\\\": false,\\n    \\\"m_ShaderOutputName\\\": \\\"B\\\",\\n    \\\"m_StageCapability\\\": 3,\\n    \\\"m_Value\\\": {\\n        \\\"e00\\\": 2.0,\\n        \\\"e01\\\": 2.0,\\n        \\\"e02\\\": 2.0,\\n        \\\"e03\\\": 2.0,\\n        \\\"e10\\\": 2.0,\\n        \\\"e11\\\": 2.0,\\n        \\\"e12\\\": 2.0,\\n        \\\"e13\\\": 2.0,\\n        \\\"e20\\\": 2.0,\\n        \\\"e21\\\": 2.0,\\n        \\\"e22\\\": 2.0,\\n        \\\"e23\\\": 2.0,\\n        \\\"e30\\\": 2.0,\\n        \\\"e31\\\": 2.0,\\n        \\\"e32\\\": 2.0,\\n        \\\"e33\\\": 2.0\\n    },\\n    \\\"m_DefaultValue\\\": {\\n        \\\"e00\\\": 1.0,\\n        \\\"e01\\\": 0.0,\\n        \\\"e02\\\": 0.0,\\n        \\\"e03\\\": 0.0,\\n        \\\"e10\\\": 0.0,\\n        \\\"e11\\\": 1.0,\\n        \\\"e12\\\": 0.0,\\n        \\\"e13\\\": 0.0,\\n        \\\"e20\\\": 0.0,\\n        \\\"e21\\\": 0.0,\\n        \\\"e22\\\": 1.0,\\n        \\\"e23\\\": 0.0,\\n        \\\"e30\\\": 0.0,\\n        \\\"e31\\\": 0.0,\\n        \\\"e32\\\": 0.0,\\n        \\\"e33\\\": 1.0\\n    }\\n}\"\n        },\n        {\n            \"typeInfo\": {\n                \"fullName\": \"UnityEditor.ShaderGraph.DynamicValueMaterialSlot\"\n            },\n            \"JSONnodeData\": \"{\\n    \\\"m_Id\\\": 2,\\n    \\\"m_DisplayName\\\": \\\"Out\\\",\\n    \\\"m_SlotType\\\": 1,\\n    \\\"m_Priority\\\": 2147483647,\\n    \\\"m_Hidden\\\": false,\\n    \\\"m_ShaderOutputName\\\": \\\"Out\\\",\\n    \\\"m_StageCapability\\\": 3,\\n    \\\"m_Value\\\": {\\n        \\\"e00\\\": 0.0,\\n        \\\"e01\\\": 0.0,\\n        \\\"e02\\\": 0.0,\\n        \\\"e03\\\": 0.0,\\n        \\\"e10\\\": 0.0,\\n        \\\"e11\\\": 0.0,\\n        \\\"e12\\\": 0.0,\\n        \\\"e13\\\": 0.0,\\n        \\\"e20\\\": 0.0,\\n        \\\"e21\\\": 0.0,\\n        \\\"e22\\\": 0.0,\\n        \\\"e23\\\": 0.0,\\n        \\\"e30\\\": 0.0,\\n        \\\"e31\\\": 0.0,\\n        \\\"e32\\\": 0.0,\\n        \\\"e33\\\": 0.0\\n    },\\n    \\\"m_DefaultValue\\\": {\\n        \\\"e00\\\": 1.0,\\n        \\\"e01\\\": 0.0,\\n        \\\"e02\\\": 0.0,\\n        \\\"e03\\\": 0.0,\\n        \\\"e10\\\": 0.0,\\n        \\\"e11\\\": 1.0,\\n        \\\"e12\\\": 0.0,\\n        \\\"e13\\\": 0.0,\\n        \\\"e20\\\": 0.0,\\n        \\\"e21\\\": 0.0,\\n        \\\"e22\\\": 1.0,\\n        \\\"e23\\\": 0.0,\\n        \\\"e30\\\": 0.0,\\n        \\\"e31\\\": 0.0,\\n        \\\"e32\\\": 0.0,\\n        \\\"e33\\\": 1.0\\n    }\\n}\"\n        }\n    ],\n    \"m_Precision\": 0,\n    \"m_PreviewExpanded\": true,\n    \"m_CustomColors\": {\n        \"m_SerializableColors\": []\n    }\n}"
        }
    ],
    "m_Groups": [],
    "m_SerializableEdges": [
        {
            "typeInfo": {
                "fullName": "UnityEditor.Graphing.Edge"
            },
            "JSONnodeData": "{\n    \"m_OutputSlot\": {\n        \"m_SlotId\": 0,\n        \"m_NodeGUIDSerialized\": \"4c5a0797-3b3d-4fcd-8c14-2c8ac8ab45b3\"\n    },\n    \"m_InputSlot\": {\n        \"m_SlotId\": 5,\n        \"m_NodeGUIDSerialized\": \"c967919a-8b23-4ddb-9e33-ef8e628c2fd8\"\n    }\n}"
        },
        {
            "typeInfo": {
                "fullName": "UnityEditor.Graphing.Edge"
            },
            "JSONnodeData": "{\n    \"m_OutputSlot\": {\n        \"m_SlotId\": 0,\n        \"m_NodeGUIDSerialized\": \"c9e562a5-ce08-4f4a-b2f1-fde662b2f275\"\n    },\n    \"m_InputSlot\": {\n        \"m_SlotId\": 1,\n        \"m_NodeGUIDSerialized\": \"c967919a-8b23-4ddb-9e33-ef8e628c2fd8\"\n    }\n}"
        },
        {
            "typeInfo": {
                "fullName": "UnityEditor.Graphing.Edge"
            },
            "JSONnodeData": "{\n    \"m_OutputSlot\": {\n        \"m_SlotId\": 0,\n        \"m_NodeGUIDSerialized\": \"94d5bf24-cd86-4971-a088-400ee8d6b689\"\n    },\n    \"m_InputSlot\": {\n        \"m_SlotId\": 0,\n        \"m_NodeGUIDSerialized\": \"3be3c6bd-f252-4870-82de-04013418ca2f\"\n    }\n}"
        },
        {
            "typeInfo": {
                "fullName": "UnityEditor.Graphing.Edge"
            },
            "JSONnodeData": "{\n    \"m_OutputSlot\": {\n        \"m_SlotId\": 0,\n        \"m_NodeGUIDSerialized\": \"c967919a-8b23-4ddb-9e33-ef8e628c2fd8\"\n    },\n    \"m_InputSlot\": {\n        \"m_SlotId\": 1,\n        \"m_NodeGUIDSerialized\": \"3be3c6bd-f252-4870-82de-04013418ca2f\"\n    }\n}"
        },
        {
            "typeInfo": {
                "fullName": "UnityEditor.Graphing.Edge"
            },
            "JSONnodeData": "{\n    \"m_OutputSlot\": {\n        \"m_SlotId\": 2,\n        \"m_NodeGUIDSerialized\": \"3be3c6bd-f252-4870-82de-04013418ca2f\"\n    },\n    \"m_InputSlot\": {\n        \"m_SlotId\": 0,\n        \"m_NodeGUIDSerialized\": \"8505d56e-8cc6-48c3-b983-17c21948b447\"\n    }\n}"
        }
    ],
    "m_PreviewData": {
        "serializedMesh": {
            "m_SerializedMesh": "{\"mesh\":{\"instanceID\":0}}",
            "m_Guid": ""
        }
    },
    "m_Path": "Shader Graphs",
    "m_ConcretePrecision": 0,
    "m_ActiveOutputNodeGuidSerialized": "8505d56e-8cc6-48c3-b983-17c21948b447"
}